<svg width="24" height="24" viewBox="0 0 24 24" fill="none" xmlns="http://www.w3.org/2000/svg">
  <path fill-rule="evenodd" clip-rule="evenodd" d="M12 24C5.37258 24 0 18.6274 0 12C0 5.37258 5.37258 0 12 0C18.6274 0 24 5.37258 24 12C24 18.6274 18.6274 24 12 24ZM11.9998 21.8182C17.4223 21.8182 21.818 17.4224 21.818 12C21.818 6.57757 17.4223 2.18182 11.9998 2.18182C6.57739 2.18182 2.18164 6.57757 2.18164 12C2.18164 17.4224 6.57739 21.8182 11.9998 21.8182ZM8.40801 17.135L12.0003 13.5428L15.5925 17.135L17.1353 15.5923L13.543 12L17.1353 8.40777L15.5925 6.86499L12.0003 10.4572L8.40801 6.86499L6.86523 8.40777L10.4575 12L6.86523 15.5923L8.40801 17.135Z" fill="#76819A"/>
</svg>
